{
  "session_id": 3,
  "user_message_id": 197,
  "assistant_message_id": 199,
  "message": "Berikut adalah beberapa rekomendasi kursus mengenai kepemimpinan yang dapat Anda eksplorasi:\n\n1. **Project Communication Management** - Pentingnya komunikasi dalam manajemen proyek.\n2. **Strategic Thinking** - Cara berpikir strategis untuk menyikapi persoalan.\n3. **Agile Leadership** - Kepemimpinan yang responsif dan kolaboratif di era VUCA.\n4. **Project Management Basic** - Dasar-dasar manajemen proyek untuk semua perusahaan.\n\nSilakan cek hasilnya untuk informasi lebih lanjut!",
  "model": "gpt-4o-mini",
  "response_id": "resp_0ee04cd83f8c179d00698dae2c609c81918ec06c6c46665743",
  "prompt": {
    "version": "v1",
    "hash": "5764dd36a672ff051686a5264035ceb664d099ee61fc1470d616bca062842c4e"
  },
  "tool_results": [
    {
      "id": "call_Ru6GC2sdxrXmMGKVLX1mdvuz",
      "name": "get_course_recommendation",
      "output": {
        "count": 48,
        "next": "http://ncc-stg.api.bawana:8000/api/v2/course-recommendations/?q=leadership&q=management&q=communication&q=strategic+thinking&q=team+building&page=2&page_size=5",
        "previous": null,
        "results": [
          {
            "id": 492,
            "title": "Project Communication Management",
            "description": "Komunikasi sangat berperan penting bagi project untuk itu dibuat area knowledge project communicati…",
            "url": "https://ncc-stg.bawana.com/courses/492",
            "type": "Course",
            "status": null,
            "progress": 0,
            "is_eligible": true,
            "in_playlist": false
          },
          {
            "id": 56,
            "title": "Strategic Thinking",
            "description": "Berpikir strategis pada dasarnya adalah cara berpikir untuk menyikapi persoalan dengan membuat renc…",
            "url": "https://ncc-stg.bawana.com/courses/56",
            "type": "Course",
            "status": null,
            "progress": 0,
            "is_eligible": true,
            "in_playlist": false
          },
          {
            "id": 26,
            "title": "Agile Leadership",
            "description": "Di era VUCA dan digitalisasi organisasi dituntut untuk lebih cepat merespon, kolaboratif, fleksibel…",
            "url": "https://ncc-stg.bawana.com/courses/26",
            "type": "Course",
            "status": null,
            "progress": 0,
            "is_eligible": true,
            "in_playlist": false
          },
          {
            "id": 40,
            "title": "Project Management Basic",
            "description": "Manajemen proyek menjadi hal yang penting untuk semua perusahaan, baik itu besar maupun kecil. Di e…",
            "url": "https://ncc-stg.bawana.com/courses/40",
            "type": "Course",
            "status": null,
            "progress": 0,
            "is_eligible": true,
            "in_playlist": false
          },
          {
            "id": 54,
            "title": "Agile Leadership",
            "description": "Di era VUCA dan digitalisasi organisasi dituntut untuk lebih cepat merespon, kolaboratif, fleksibel…",
            "url": "https://ncc-stg.bawana.com/courses/54",
            "type": "Course",
            "status": null,
            "progress": 0,
            "is_eligible": true,
            "in_playlist": false
          }
        ]
      }
    }
  ]
}
